<svg width="16" height="16" viewBox="0 0 16 16" fill="none" xmlns="http://www.w3.org/2000/svg">
<path d="M10.6341 1.2511V3.28089C12.4824 4.23527 13.7494 6.16156 13.7494 8.38669C13.7494 11.5609 11.176 14.1353 8.00184 14.1353C4.82658 14.1353 2.25218 11.5609 2.25218 8.38669C2.25218 6.34628 3.32016 4.55694 4.92159 3.53727V1.42733C2.25324 2.61049 0.388 5.27883 0.388 8.38722C0.388 12.5917 3.79576 16 7.99972 16C12.2058 16 15.6125 12.5917 15.6125 8.38722C15.612 5.10845 13.536 2.32438 10.6341 1.2511Z" fill="white"/>
<path d="M7.85319 9.36974C8.68974 9.36974 8.77466 8.87556 8.77466 8.26779V1.10407C8.77466 0.494708 8.68974 0 7.85319 0C7.01983 0 6.93384 0.494708 6.93384 1.10407V8.26779C6.93331 8.87609 7.01983 9.36974 7.85319 9.36974Z" fill="white"/>
</svg>
